…
``` r
storms %>%
  select(name, year, status) %>%
  mutate_all(tolower) %>%
  mutate_all(~str_replace_all(
    string = .,
    pattern = " ",
    replacement = "_"
  )
  )
```

    ## # A tibble: 10,010 x 3
    ##    name  year  status
    ##    <chr> <chr> <chr>
    ##  1 amy   1975  tropical_depression
    ##  2 amy   1975  tropical_depression
    ##  3 amy   1975  tropical_depression
    ##  4 amy   1975  tropical_depression
    ##  5 amy   1975  tropical_depression
    ##  6 amy   1975  tropical_depression
    ##  7 amy   1975  tropical_depression
    ##  8 amy   1975  tropical_depression
    ##  9 amy   1975  tropical_storm
    ## 10 amy   1975  tropical_storm
    ## # ... with 10,000 more rows
…
## Manipulação entre observações entre colunas

``` r
iris %>%
  select(contains("Length")) %>%
  rowwise() %>%
  mutate(media_dos_comp = mean(c(Petal.Length, Sepal.Length)))
```

    ## Source: local data frame [150 x 3]
    ## Groups: <by row>
    ##
    ## # A tibble: 150 x 3
    ##    Sepal.Length Petal.Length media_dos_comp
    ##           <dbl>        <dbl>          <dbl>
    ##  1          5.1          1.4           3.25
    ##  2          4.9          1.4           3.15
    ##  3          4.7          1.3           3
    ##  4          4.6          1.5           3.05
    ##  5          5            1.4           3.2
    ##  6          5.4          1.7           3.55
    ##  7          4.6          1.4           3
    ##  8          5            1.5           3.25
    ##  9          4.4          1.4           2.9
    ## 10          4.9          1.5           3.2
    ## # ... with 140 more rows
