…
### Selecione algumas colunas e filtre por valores

```r
flights %>%
  select(year, carrier, origin, distance) %>%
  filter(carrier == "UA" & origin == "EWR")
```

```r
## # A tibble: 46,087 x 4
##     year carrier origin distance
##    <int> <chr>   <chr>     <dbl>
##  1  2013 UA      EWR        1400
##  2  2013 UA      EWR         719
##  3  2013 UA      EWR        2565
##  4  2013 UA      EWR        2227
##  5  2013 UA      EWR        1085
##  6  2013 UA      EWR        2454
##  7  2013 UA      EWR        1023
##  8  2013 UA      EWR        1065
##  9  2013 UA      EWR        2434
## 10  2013 UA      EWR         997
## # ... with 46,077 more rows
```

### Selecione algumas colunas e filtre por múltiplos valores

```r
flights %>%
  select(year, carrier, origin, distance) %>%
  filter(carrier == c("UA", "AA"))
```

```r
## # A tibble: 45,513 x 4
##     year carrier origin distance
##    <int> <chr>   <chr>     <dbl>
##  1  2013 UA      EWR        1400
##  2  2013 AA      LGA         733
##  3  2013 UA      JFK        2475
##  4  2013 UA      EWR        2227
##  5  2013 UA      EWR        1085
##  6  2013 UA      JFK        2586
##  7  2013 AA      LGA        1096
##  8  2013 UA      LGA        1416
##  9  2013 UA      EWR        2434
## 10  2013 AA      LGA         733
## # ... with 45,503 more rows
```

### Usando o `%in%`

```r
flights %>%
  select(year, carrier, origin, distance) %>%
  filter(carrier %in% c("UA", "AA"))
```

```r
## # A tibble: 91,394 x 4
##     year carrier origin distance
##    <int> <chr>   <chr>     <dbl>
##  1  2013 UA      EWR        1400
##  2  2013 UA      LGA        1416
##  3  2013 AA      JFK        1089
##  4  2013 UA      EWR         719
##  5  2013 AA      LGA         733
##  6  2013 UA      JFK        2475
##  7  2013 UA      EWR        2565
##  8  2013 AA      LGA        1389
##  9  2013 UA      EWR        2227
## 10  2013 AA      EWR        1085
## # ... with 91,384 more rows
```
…
### Filtrando valores ausentes

```r
flights %>%
  select(year, carrier, origin, distance, dep_delay) %>%
  filter(is.na(dep_delay))
```

```r
## # A tibble: 8,255 x 5
##     year carrier origin distance dep_delay
##    <int> <chr>   <chr>     <dbl>     <dbl>
##  1  2013 EV      EWR         416        NA
##  2  2013 AA      LGA        1389        NA
##  3  2013 AA      LGA        1096        NA
##  4  2013 B6      JFK        1069        NA
##  5  2013 EV      EWR         569        NA
##  6  2013 EV      EWR         319        NA
##  7  2013 EV      EWR         209        NA
##  8  2013 EV      EWR         746        NA
##  9  2013 EV      EWR         645        NA
## 10  2013 AA      JFK        2475        NA
## # ... with 8,245 more rows
```

### Excluindo valores ausentes

```r
flights %>%
  select(year, carrier, origin, distance, dep_delay) %>%
  filter(!is.na(dep_delay))
```

```r
## # A tibble: 328,521 x 5
##     year carrier origin distance dep_delay
##    <int> <chr>   <chr>     <dbl>     <dbl>
##  1  2013 UA      EWR        1400      2.00
##  2  2013 UA      LGA        1416      4.00
##  3  2013 AA      JFK        1089      2.00
##  4  2013 B6      JFK        1576     -1.00
##  5  2013 DL      LGA         762     -6.00
##  6  2013 UA      EWR         719     -4.00
##  7  2013 B6      EWR        1065     -5.00
##  8  2013 EV      LGA         229     -3.00
##  9  2013 B6      JFK         944     -3.00
## 10  2013 AA      LGA         733     -2.00
## # ... with 328,511 more rows
```
…
