…
#### Make a “long-format” data frame

``` r
surveys_gw <- surveys %>%
  filter(!is.na(weight)) %>%
  group_by(genus, plot_id) %>%
  summarize(mean_weight = mean(weight))

surveys_gw
#> # A tibble: 196 x 3
#> # Groups:   genus [?]
#>    genus       plot_id mean_weight
#>    <fct>         <int>       <dbl>
#>  1 Baiomys           1        7
#>  2 Baiomys           2        6
#>  3 Baiomys           3        8.61
#>  4 Baiomys           5        7.75
#>  5 Baiomys          18        9.5
#>  6 Baiomys          19        9.53
#>  7 Baiomys          20        6
#>  8 Baiomys          21        6.67
#>  9 Chaetodipus       1       22.2
#> 10 Chaetodipus       2       25.1
#> # ... with 186 more rows
```

``` r
surveys_spread <- surveys_gw %>%
  spread(
    key = genus,         # quem vai virar coluna
    value = mean_weight  # quem vai preencher as células
  )

surveys_spread
#> # A tibble: 24 x 11
#>    plot_id Baiomys Chaetodipus Dipodomys Neotoma Onychomys Perognathus
#>      <int>   <dbl>       <dbl>     <dbl>   <dbl>     <dbl>       <dbl>
#>  1       1    7           22.2      60.2    156.      27.7        9.62
#>  2       2    6           25.1      55.7    169.      26.9        6.95
#>  3       3    8.61        24.6      52.0    158.      26.0        7.51
#>  4       4   NA           23.0      57.5    164.      28.1        7.82
#>  5       5    7.75        18.0      51.1    190.      27.0        8.66
#>  6       6   NA           24.9      58.6    180.      25.9        7.81
#>  7       7   NA           19.9      57.4    170.      23.6        7
#>  8       8   NA           20.5      59.4    134.      25.9        7.06
#>  9       9   NA           18.9      57.5    162.      27.5        7.37
#> 10      10   NA           22.3      51.8    190       28.7       NA
#> # ... with 14 more rows, and 4 more variables: Peromyscus <dbl>,
#> #   Reithrodontomys <dbl>, Sigmodon <dbl>, Spermophilus <dbl>
```
…
#### Use the “wide-format” data frame

``` r
surveys_gather <- surveys_spread %>%
  gather(
    key = genus,          # nome para a coluna de colunas
    value = mean_weight,  # nome para a coluna de células
    -plot_id              # menos o plot_id
  )

surveys_gather
#> # A tibble: 240 x 3
#>    plot_id genus   mean_weight
#>      <int> <chr>         <dbl>
#>  1       1 Baiomys        7
#>  2       2 Baiomys        6
#>  3       3 Baiomys        8.61
#>  4       4 Baiomys       NA
#>  5       5 Baiomys        7.75
#>  6       6 Baiomys       NA
#>  7       7 Baiomys       NA
#>  8       8 Baiomys       NA
#>  9       9 Baiomys       NA
#> 10      10 Baiomys       NA
#> # ... with 230 more rows
```

#### Selecione as colunas que você quer transformar em “long-format”

#### Assim - escolhendo as colunas:

``` r
surveys_spread %>%
  gather(
    key = genus,
    value = mean_weight,
    c(Baiomys, Reithrodontomys)
  )
#> # A tibble: 48 x 11
#>    plot_id Chaetodipus Dipodomys Neotoma Onychomys Perognathus Peromyscus
#>      <int>       <dbl>     <dbl>   <dbl>     <dbl>       <dbl>      <dbl>
#>  1       1        22.2      60.2    156.      27.7        9.62       22.2
#>  2       2        25.1      55.7    169.      26.9        6.95       22.3
#>  3       3        24.6      52.0    158.      26.0        7.51       21.4
#>  4       4        23.0      57.5    164.      28.1        7.82       22.6
#>  5       5        18.0      51.1    190.      27.0        8.66       21.2
#>  6       6        24.9      58.6    180.      25.9        7.81       21.8
#>  7       7        19.9      57.4    170.      23.6        7          22.2
#>  8       8        20.5      59.4    134.      25.9        7.06       20.1
#>  9       9        18.9      57.5    162.      27.5        7.37       21.7
#> 10      10        22.3      51.8    190       28.7       NA          21.1
#> # ... with 38 more rows, and 4 more variables: Sigmodon <dbl>,
#> #   Spermophilus <dbl>, genus <chr>, mean_weight <dbl>
```

#### Ou assim - em sequência:

``` r
surveys_spread %>%
  gather(
    key = genus,
    value = mean_weight,
    Baiomys:Reithrodontomys
  )
#> # A tibble: 192 x 5
#>    plot_id Sigmodon Spermophilus genus   mean_weight
#>      <int>    <dbl>        <dbl> <chr>         <dbl>
#>  1       1     NA             NA Baiomys        7
#>  2       2     70.9           NA Baiomys        6
#>  3       3     65.6           NA Baiomys        8.61
#>  4       4     82             NA Baiomys       NA
#>  5       5     82.7           NA Baiomys        7.75
#>  6       6     68.8           NA Baiomys       NA
#>  7       7     NA             NA Baiomys       NA
#>  8       8     NA             NA Baiomys       NA
#>  9       9     56.5           NA Baiomys       NA
#> 10      10    101             NA Baiomys       NA
#> # ... with 182 more rows
```
…
